%YAML 1.1
%TAG !u! tag:unity3d.com,2011:
--- !u!1001 &2771337002837025018
PrefabInstance:
  m_ObjectHideFlags: 0
  serializedVersion: 2
  m_Modification:
    m_TransformParent: {fileID: 0}
    m_Modifications:
    - target: {fileID: 100000, guid: 6b63ca9c7bc00f24b81b6cb48095b9a9, type: 3}
      propertyPath: m_Name
      value: Tree Type0 02
      objectReference: {fileID: 0}
    - target: {fileID: 400000, guid: 6b63ca9c7bc00f24b81b6cb48095b9a9, type: 3}
      propertyPath: m_RootOrder
      value: 0
      objectReference: {fileID: 0}
    - target: {fileID: 400000, guid: 6b63ca9c7bc00f24b81b6cb48095b9a9, type: 3}
      propertyPath: m_LocalPosition.x
      value: 972.6661
      objectReference: {fileID: 0}
    - target: {fileID: 400000, guid: 6b63ca9c7bc00f24b81b6cb48095b9a9, type: 3}
      propertyPath: m_LocalPosition.y
      value: 11.440483
      objectReference: {fileID: 0}
    - target: {fileID: 400000, guid: 6b63ca9c7bc00f24b81b6cb48095b9a9, type: 3}
      propertyPath: m_LocalPosition.z
      value: 65.01035
      objectReference: {fileID: 0}
    - target: {fileID: 400000, guid: 6b63ca9c7bc00f24b81b6cb48095b9a9, type: 3}
      propertyPath: m_LocalRotation.w
      value: 1
      objectReference: {fileID: 0}
    - target: {fileID: 400000, guid: 6b63ca9c7bc00f24b81b6cb48095b9a9, type: 3}
      propertyPath: m_LocalRotation.x
      value: 0.0000000218557
      objectReference: {fileID: 0}
    - target: {fileID: 400000, guid: 6b63ca9c7bc00f24b81b6cb48095b9a9, type: 3}
      propertyPath: m_LocalRotation.y
      value: -0
      objectReference: {fileID: 0}
    - target: {fileID: 400000, guid: 6b63ca9c7bc00f24b81b6cb48095b9a9, type: 3}
      propertyPath: m_LocalRotation.z
      value: -0
      objectReference: {fileID: 0}
    - target: {fileID: 400000, guid: 6b63ca9c7bc00f24b81b6cb48095b9a9, type: 3}
      propertyPath: m_LocalEulerAnglesHint.x
      value: 0
      objectReference: {fileID: 0}
    - target: {fileID: 400000, guid: 6b63ca9c7bc00f24b81b6cb48095b9a9, type: 3}
      propertyPath: m_LocalEulerAnglesHint.y
      value: 0
      objectReference: {fileID: 0}
    - target: {fileID: 400000, guid: 6b63ca9c7bc00f24b81b6cb48095b9a9, type: 3}
      propertyPath: m_LocalEulerAnglesHint.z
      value: 0
      objectReference: {fileID: 0}
    - target: {fileID: 2300000, guid: 6b63ca9c7bc00f24b81b6cb48095b9a9, type: 3}
      propertyPath: m_Materials.Array.data[0]
      value: 
      objectReference: {fileID: 2100000, guid: 4e5c69c448c72ef40bbbe9fc93900a83, type: 2}
    m_RemovedComponents: []
  m_SourcePrefab: {fileID: 100100000, guid: 6b63ca9c7bc00f24b81b6cb48095b9a9, type: 3}
